<?xml version="1.0" encoding="utf-8"?>
<!-- Generator: Adobe Illustrator 22.0.1, SVG Export Plug-In . SVG Version: 6.00 Build 0)  -->
<svg version="1.1" id="Layer_1" xmlns="http://www.w3.org/2000/svg" xmlns:xlink="http://www.w3.org/1999/xlink" x="0px" y="0px"
	 viewBox="0 0 56.7 56.7" style="enable-background:new 0 0 56.7 56.7;" xml:space="preserve">
<style type="text/css">
	.st0{fill:#434343;}
</style>
<g>
	<path class="st0" d="M28.4,10.5c0-1.1,0-2.1,0-3.4c3,1.8,5.8,3.5,8.8,5.2c-2.9,1.8-5.7,3.4-8.7,5.2c0-1.2,0-2.3,0-3.3
		c-4.7-0.5-11.9,2.6-14.9,9.7c-3,7.3-0.2,15.6,6.6,19.8c6.4,3.9,15,2.6,20-2.9c5.3-5.9,5.8-15.6-0.1-21.7c0.8-0.8,1.6-1.6,2.4-2.3
		c4.9,4.2,7.2,13.4,3.6,21.3c-3.8,8.2-13.1,12.9-21.7,11c-8.8-2-15.7-9.6-15.5-19.7C9.1,19.6,17.3,10.5,28.4,10.5z"/>
	<path class="st0" d="M32.1,18.7c1.1,0.5,2.1,1,3.2,1.5c-1.4,2.7-2.7,5.4-4.1,8.1c-0.5,0.9-0.4,1.7,0.4,2.5c1.7,1.7,3.4,3.4,5.1,5.1
		c-0.9,0.8-1.7,1.6-2.6,2.5c-1.4-1.4-3-3-4.5-4.5c-0.5-0.5-1.1-1-1.9-1.2c-1-0.2-1.6-1-1.8-2c-0.1-1.1,0.2-2,1.1-2.7
		c0.5-0.4,1-0.8,1.2-1.4C29.5,23.9,30.8,21.3,32.1,18.7z"/>
</g>
</svg>
